EESchema Schematic File Version 4
LIBS:Raspberry_Pi_3_b+-cache
EELAYER 26 0
EELAYER END
$Descr A3 16535 11693
encoding utf-8
Sheet 1 1
Title "Raspberry Pi HAT"
Date ""
Rev "A"
Comp ""
Comment1 ""
Comment2 ""
Comment3 ""
Comment4 ""
$EndDescr
$Comp
L Mechanical:Mounting_Hole H1
U 1 1 5834BC4A
P 5650 6000
F 0 "H1" H 5500 6100 60  0000 C CNN
F 1 "3mm_Mounting_Hole" H 5650 5850 60  0000 C CNN
F 2 "project_footprints:NPTH_3mm_ID" H 5550 6000 60  0001 C CNN
F 3 "" H 5550 6000 60  0001 C CNN
F 4 "" H -12600 -4650 50  0001 C CNN "MFR"
F 5 "" H -12600 -4650 50  0001 C CNN "MPN"
F 6 "" H -12600 -4650 50  0001 C CNN "SPR"
F 7 "" H -12600 -4650 50  0001 C CNN "SPN"
F 8 "" H -12600 -4650 50  0001 C CNN "SPURL"
	1    5650 6000
	1    0    0    -1  
$EndComp
$Comp
L Mechanical:Mounting_Hole H2
U 1 1 5834BCDF
P 6650 6000
F 0 "H2" H 6500 6100 60  0000 C CNN
F 1 "3mm_Mounting_Hole" H 6650 5850 60  0000 C CNN
F 2 "project_footprints:NPTH_3mm_ID" H 6550 6000 60  0001 C CNN
F 3 "" H 6550 6000 60  0001 C CNN
F 4 "" H -12600 -4650 50  0001 C CNN "MFR"
F 5 "" H -12600 -4650 50  0001 C CNN "MPN"
F 6 "" H -12600 -4650 50  0001 C CNN "SPR"
F 7 "" H -12600 -4650 50  0001 C CNN "SPN"
F 8 "" H -12600 -4650 50  0001 C CNN "SPURL"
	1    6650 6000
	1    0    0    -1  
$EndComp
$Comp
L Mechanical:Mounting_Hole H3
U 1 1 5834BD62
P 5650 6550
F 0 "H3" H 5500 6650 60  0000 C CNN
F 1 "3mm_Mounting_Hole" H 5650 6400 60  0000 C CNN
F 2 "project_footprints:NPTH_3mm_ID" H 5550 6550 60  0001 C CNN
F 3 "" H 5550 6550 60  0001 C CNN
F 4 "" H -12600 -4650 50  0001 C CNN "MFR"
F 5 "" H -12600 -4650 50  0001 C CNN "MPN"
F 6 "" H -12600 -4650 50  0001 C CNN "SPR"
F 7 "" H -12600 -4650 50  0001 C CNN "SPN"
F 8 "" H -12600 -4650 50  0001 C CNN "SPURL"
	1    5650 6550
	1    0    0    -1  
$EndComp
$Comp
L Mechanical:Mounting_Hole H4
U 1 1 5834BDED
P 6700 6550
F 0 "H4" H 6550 6650 60  0000 C CNN
F 1 "3mm_Mounting_Hole" H 6700 6400 60  0000 C CNN
F 2 "project_footprints:NPTH_3mm_ID" H 6600 6550 60  0001 C CNN
F 3 "" H 6600 6550 60  0001 C CNN
F 4 "" H -12600 -4650 50  0001 C CNN "MFR"
F 5 "" H -12600 -4650 50  0001 C CNN "MPN"
F 6 "" H -12600 -4650 50  0001 C CNN "SPR"
F 7 "" H -12600 -4650 50  0001 C CNN "SPN"
F 8 "" H -12600 -4650 50  0001 C CNN "SPURL"
	1    6700 6550
	1    0    0    -1  
$EndComp
$Comp
L raspberrypi_hat:OX40HAT J3
U 1 1 58DFC771
P 2600 2250
F 0 "J3" H 2950 2350 50  0000 C CNN
F 1 "40HAT" H 2300 2350 50  0000 C CNN
F 2 "Connector_PinSocket_2.54mm:PinSocket_2x20_P2.54mm_Vertical" H 2600 2450 50  0001 C CNN
F 3 "" H 1900 2250 50  0000 C CNN
	1    2600 2250
	1    0    0    -1  
$EndComp
Text Notes 5300 5700 0    118  ~ 24
Mounting Holes
Text Notes 1650 2000 0    118  ~ 24
40-Pin HAT Connector
Text Label 800  4150 0    60   ~ 0
GND
Wire Wire Line
	2000 4150 800  4150
Text Label 800  3550 0    60   ~ 0
ID_SD_EEPROM
Wire Wire Line
	2000 3550 800  3550
Text Label 800  3450 0    60   ~ 0
GND
Wire Wire Line
	2000 3450 800  3450
Text Label 800  2650 0    60   ~ 0
GND
Wire Wire Line
	2000 2650 800  2650
Text Label 800  2250 0    60   ~ 0
P3V3_HAT
Wire Wire Line
	2000 2250 800  2250
Wire Wire Line
	3200 3550 4400 3550
Wire Wire Line
	3200 3650 4400 3650
Wire Wire Line
	3200 3850 4400 3850
Text Label 4400 2850 2    60   ~ 0
GND
Text Label 4400 3150 2    60   ~ 0
GND
Text Label 4400 3650 2    60   ~ 0
GND
Text Label 4400 3550 2    60   ~ 0
ID_SC_EEPROM
Text Label 4400 3850 2    60   ~ 0
GND
Text Label 4400 2450 2    60   ~ 0
GND
Text Label 4400 2350 2    60   ~ 0
P5V_HAT
Text Label 4400 2250 2    60   ~ 0
P5V_HAT
Text Notes 850  1250 0    100  ~ 0
This is based on the official Raspberry Pi spec to be able to call an extension board a HAT.\nhttps://github.com/raspberrypi/hats/blob/master/designguide.md
$Comp
L Cure_Symbol:LMR23630AFDDAR IC1
U 1 1 5BD7840D
P 9800 3250
F 0 "IC1" H 10500 3515 50  0000 C CNN
F 1 "LMR23630AFDDAR" H 10500 3424 50  0000 C CNN
F 2 "LMR14010ADDCR:SOT95P280X110-6N" H 11050 3350 50  0001 L CNN
F 3 "http://www.ti.com/lit/ds/symlink/lmr23630.pdf" H 11050 3250 50  0001 L CNN
F 4 "Voltage Regulators - Switching Regulators SIMPLE SWITCHER, 36V 3A Synchronous Step-Down Converter 8-SO PowerPAD -40 to 125" H 11050 3150 50  0001 L CNN "Description"
F 5 "1.7" H 11050 3050 50  0001 L CNN "Height"
F 6 "Texas Instruments" H 11050 2950 50  0001 L CNN "Manufacturer_Name"
F 7 "LMR23630AFDDAR" H 11050 2850 50  0001 L CNN "Manufacturer_Part_Number"
F 8 "" H 11050 2750 50  0001 L CNN "RS Part Number"
F 9 "" H 11050 2650 50  0001 L CNN "RS Price/Stock"
F 10 "LMR23630AFDDAR" H 11050 2550 50  0001 L CNN "Arrow Part Number"
F 11 "https://www.arrow.com/en/products/lmr23630afddar/texas-instruments" H 11050 2450 50  0001 L CNN "Arrow Price/Stock"
	1    9800 3250
	1    0    0    -1  
$EndComp
$Comp
L Connector:DB15_Male_MountingHoles J1
U 1 1 5BD78C4B
P 6150 4050
F 0 "J1" H 6305 3961 50  0000 L CNN
F 1 "DB15_Male_MountingHoles" H 6305 4052 50  0000 L CNN
F 2 "" H 6150 4050 50  0001 C CNN
F 3 " ~" H 6150 4050 50  0001 C CNN
	1    6150 4050
	-1   0    0    1   
$EndComp
$Comp
L power:+24V #PWR04
U 1 1 5BD7909C
P 6650 3050
F 0 "#PWR04" H 6650 2900 50  0001 C CNN
F 1 "+24V" H 6665 3223 50  0000 C CNN
F 2 "" H 6650 3050 50  0001 C CNN
F 3 "" H 6650 3050 50  0001 C CNN
	1    6650 3050
	1    0    0    -1  
$EndComp
Wire Wire Line
	6450 3350 6450 3450
Wire Wire Line
	6450 3450 6450 3550
Connection ~ 6450 3450
Wire Wire Line
	6450 3350 6650 3350
Wire Wire Line
	6650 3350 6650 3050
Connection ~ 6450 3350
Wire Wire Line
	6450 3550 6450 3650
Connection ~ 6450 3550
$Comp
L power:GND #PWR011
U 1 1 5BD7978D
P 6700 3900
F 0 "#PWR011" H 6700 3650 50  0001 C CNN
F 1 "GND" H 6705 3727 50  0000 C CNN
F 2 "" H 6700 3900 50  0001 C CNN
F 3 "" H 6700 3900 50  0001 C CNN
	1    6700 3900
	1    0    0    -1  
$EndComp
Wire Wire Line
	6450 3750 6450 3850
Connection ~ 6450 3850
Wire Wire Line
	6450 3850 6450 3950
Connection ~ 6450 3950
Wire Wire Line
	6450 3950 6450 4050
Wire Wire Line
	6450 3750 6700 3750
Wire Wire Line
	6700 3750 6700 3900
Connection ~ 6450 3750
Wire Wire Line
	11200 3550 11450 3550
Wire Wire Line
	11450 3350 11200 3350
$Comp
L power:+24V #PWR08
U 1 1 5BD7A0DC
P 11450 3350
F 0 "#PWR08" H 11450 3200 50  0001 C CNN
F 1 "+24V" V 11465 3478 50  0000 L CNN
F 2 "" H 11450 3350 50  0001 C CNN
F 3 "" H 11450 3350 50  0001 C CNN
	1    11450 3350
	0    1    1    0   
$EndComp
Wire Wire Line
	11450 3450 11550 3450
$Comp
L Device:C_Small C4
U 1 1 5BD7A555
P 9400 3650
F 0 "C4" H 9492 3696 50  0000 L CNN
F 1 "2.2u" H 9492 3605 50  0000 L CNN
F 2 "Capacitors_SMD:C_1206" H 9400 3650 50  0001 C CNN
F 3 "~" H 9400 3650 50  0001 C CNN
	1    9400 3650
	1    0    0    -1  
$EndComp
$Comp
L power:GND #PWR014
U 1 1 5BD7A910
P 9400 3950
F 0 "#PWR014" H 9400 3700 50  0001 C CNN
F 1 "GND" H 9405 3777 50  0000 C CNN
F 2 "" H 9400 3950 50  0001 C CNN
F 3 "" H 9400 3950 50  0001 C CNN
	1    9400 3950
	1    0    0    -1  
$EndComp
$Comp
L power:GND #PWR09
U 1 1 5BD7B3EC
P 11300 3450
F 0 "#PWR09" H 11300 3200 50  0001 C CNN
F 1 "GND" V 11305 3322 50  0000 R CNN
F 2 "" H 11300 3450 50  0001 C CNN
F 3 "" H 11300 3450 50  0001 C CNN
	1    11300 3450
	0    -1   -1   0   
$EndComp
Wire Wire Line
	11300 3450 11200 3450
$Comp
L power:+24V #PWR010
U 1 1 5BD7B7DF
P 11450 3550
F 0 "#PWR010" H 11450 3400 50  0001 C CNN
F 1 "+24V" V 11465 3678 50  0000 L CNN
F 2 "" H 11450 3550 50  0001 C CNN
F 3 "" H 11450 3550 50  0001 C CNN
	1    11450 3550
	0    1    1    0   
$EndComp
$Comp
L power:GND #PWR07
U 1 1 5BD7B832
P 11300 3250
F 0 "#PWR07" H 11300 3000 50  0001 C CNN
F 1 "GND" V 11305 3122 50  0000 R CNN
F 2 "" H 11300 3250 50  0001 C CNN
F 3 "" H 11300 3250 50  0001 C CNN
	1    11300 3250
	0    -1   -1   0   
$EndComp
Wire Wire Line
	11300 3250 11200 3250
$Comp
L power:GND #PWR015
U 1 1 5BD7BBCA
P 10500 4250
F 0 "#PWR015" H 10500 4000 50  0001 C CNN
F 1 "GND" H 10505 4077 50  0000 C CNN
F 2 "" H 10500 4250 50  0001 C CNN
F 3 "" H 10500 4250 50  0001 C CNN
	1    10500 4250
	1    0    0    -1  
$EndComp
Wire Wire Line
	10500 4250 10500 4150
$Comp
L Device:C_Small C1
U 1 1 5BD7BFAD
P 9600 3250
F 0 "C1" H 9692 3296 50  0000 L CNN
F 1 "680n" H 9692 3205 50  0000 L CNN
F 2 "Capacitors_SMD:C_1206" H 9600 3250 50  0001 C CNN
F 3 "~" H 9600 3250 50  0001 C CNN
	1    9600 3250
	1    0    0    -1  
$EndComp
Wire Wire Line
	9800 3350 9600 3350
Wire Wire Line
	9800 3250 9750 3250
Wire Wire Line
	9750 3250 9750 3150
Wire Wire Line
	9750 3150 9600 3150
$Comp
L Cure_Symbol:SRP6540-100M L1
U 1 1 5BD7C89B
P 8750 3150
F 0 "L1" H 9150 3375 50  0000 C CNN
F 1 "SRP6540-100M" H 9150 3284 50  0000 C CNN
F 2 "SRP6540-100M:SRP6540" H 9400 3200 50  0001 L CNN
F 3 "https://www.bourns.com/docs/Product-Datasheets/SRP6540.pdf" H 9400 3100 50  0001 L CNN
F 4 "Bourns SRP6540 Series Shielded Wire-wound SMD Inductor with a Iron Core, 10 H 20% Wire-Wound 4A Idc" H 9400 3000 50  0001 L CNN "Description"
F 5 "" H 9400 2900 50  0001 L CNN "Height"
F 6 "Bourns" H 9400 2800 50  0001 L CNN "Manufacturer_Name"
F 7 "SRP6540-100M" H 9400 2700 50  0001 L CNN "Manufacturer_Part_Number"
F 8 "7764039P" H 9400 2600 50  0001 L CNN "RS Part Number"
F 9 "http://uk.rs-online.com/web/p/products/7764039P" H 9400 2500 50  0001 L CNN "RS Price/Stock"
F 10 "70281716" H 9400 2400 50  0001 L CNN "Allied_Number"
F 11 "https://www.alliedelec.com/bourns-srp6540-100m/70281716/" H 9400 2300 50  0001 L CNN "Allied Price/Stock"
F 12 "SRP6540-100M" H 9400 2200 50  0001 L CNN "Arrow Part Number"
F 13 "https://www.arrow.com/en/products/srp6540-100m/bourns" H 9400 2100 50  0001 L CNN "Arrow Price/Stock"
	1    8750 3150
	1    0    0    -1  
$EndComp
Wire Wire Line
	9600 3150 9550 3150
Connection ~ 9600 3150
$Comp
L Device:R_Small R1
U 1 1 5BD7D434
P 8600 3400
F 0 "R1" H 8450 3450 50  0000 L CNN
F 1 "88.7k" H 8350 3350 50  0000 L CNN
F 2 "Resistors_SMD:R_1206" H 8600 3400 50  0001 C CNN
F 3 "~" H 8600 3400 50  0001 C CNN
	1    8600 3400
	1    0    0    -1  
$EndComp
$Comp
L Device:R_Small R2
U 1 1 5BD7D494
P 8600 3750
F 0 "R2" H 8450 3800 50  0000 L CNN
F 1 "22.1k" H 8350 3700 50  0000 L CNN
F 2 "Resistors_SMD:R_1206" H 8600 3750 50  0001 C CNN
F 3 "~" H 8600 3750 50  0001 C CNN
	1    8600 3750
	1    0    0    -1  
$EndComp
$Comp
L power:GND #PWR013
U 1 1 5BD7D4C6
P 8600 3950
F 0 "#PWR013" H 8600 3700 50  0001 C CNN
F 1 "GND" H 8605 3777 50  0000 C CNN
F 2 "" H 8600 3950 50  0001 C CNN
F 3 "" H 8600 3950 50  0001 C CNN
	1    8600 3950
	1    0    0    -1  
$EndComp
Wire Wire Line
	8750 3150 8600 3150
Wire Wire Line
	8600 3150 8600 3250
Wire Wire Line
	8600 3500 8600 3550
Wire Wire Line
	8600 3850 8600 3950
$Comp
L Device:C_Small C2
U 1 1 5BD7E106
P 8800 3400
F 0 "C2" H 8892 3446 50  0000 L CNN
F 1 "30p" H 8892 3355 50  0000 L CNN
F 2 "Capacitors_SMD:C_1206" H 8800 3400 50  0001 C CNN
F 3 "~" H 8800 3400 50  0001 C CNN
	1    8800 3400
	1    0    0    -1  
$EndComp
Connection ~ 8600 3250
Wire Wire Line
	8600 3250 8600 3300
Connection ~ 8600 3550
Wire Wire Line
	8600 3550 8600 3650
Wire Wire Line
	8800 3550 8800 3500
Wire Wire Line
	8600 3550 8800 3550
Wire Wire Line
	8800 3300 8800 3250
Wire Wire Line
	8600 3250 8800 3250
$Comp
L Device:C_Small C3
U 1 1 5BD80111
P 8050 3600
F 0 "C3" H 8142 3646 50  0000 L CNN
F 1 "120u" H 8142 3555 50  0000 L CNN
F 2 "Capacitors_SMD:C_1206" H 8050 3600 50  0001 C CNN
F 3 "~" H 8050 3600 50  0001 C CNN
	1    8050 3600
	1    0    0    -1  
$EndComp
Wire Wire Line
	8600 3150 8050 3150
Wire Wire Line
	8050 3150 8050 3500
Connection ~ 8600 3150
$Comp
L power:GND #PWR012
U 1 1 5BD80A1C
P 8050 3950
F 0 "#PWR012" H 8050 3700 50  0001 C CNN
F 1 "GND" H 8055 3777 50  0000 C CNN
F 2 "" H 8050 3950 50  0001 C CNN
F 3 "" H 8050 3950 50  0001 C CNN
	1    8050 3950
	1    0    0    -1  
$EndComp
Wire Wire Line
	8050 3950 8050 3900
Text GLabel 8950 3550 2    50   Input ~ 0
FB
Text GLabel 9700 3550 0    50   Input ~ 0
FB
Wire Wire Line
	9700 3550 9800 3550
Wire Wire Line
	9400 3750 9400 3950
Wire Wire Line
	9800 3450 9400 3450
Wire Wire Line
	9400 3450 9400 3550
Wire Wire Line
	8950 3550 8800 3550
Connection ~ 8800 3550
$Comp
L power:+5V #PWR06
U 1 1 5BD87918
P 8050 3150
F 0 "#PWR06" H 8050 3000 50  0001 C CNN
F 1 "+5V" H 8065 3323 50  0000 C CNN
F 2 "" H 8050 3150 50  0001 C CNN
F 3 "" H 8050 3150 50  0001 C CNN
	1    8050 3150
	1    0    0    -1  
$EndComp
Connection ~ 8050 3150
$Comp
L power:+5V #PWR01
U 1 1 5BD87946
P 4450 2250
F 0 "#PWR01" H 4450 2100 50  0001 C CNN
F 1 "+5V" H 4465 2423 50  0000 C CNN
F 2 "" H 4450 2250 50  0001 C CNN
F 3 "" H 4450 2250 50  0001 C CNN
	1    4450 2250
	1    0    0    -1  
$EndComp
Wire Wire Line
	3200 2250 4450 2250
Wire Wire Line
	4450 2350 4450 2250
Wire Wire Line
	3200 2350 4450 2350
Connection ~ 4450 2250
$Comp
L power:GND #PWR02
U 1 1 5BD890B2
P 4450 2450
F 0 "#PWR02" H 4450 2200 50  0001 C CNN
F 1 "GND" H 4455 2277 50  0000 C CNN
F 2 "" H 4450 2450 50  0001 C CNN
F 3 "" H 4450 2450 50  0001 C CNN
	1    4450 2450
	1    0    0    -1  
$EndComp
Wire Wire Line
	3200 2450 4450 2450
$Comp
L power:GND #PWR03
U 1 1 5BD89CC7
P 4450 2850
F 0 "#PWR03" H 4450 2600 50  0001 C CNN
F 1 "GND" H 4455 2677 50  0000 C CNN
F 2 "" H 4450 2850 50  0001 C CNN
F 3 "" H 4450 2850 50  0001 C CNN
	1    4450 2850
	1    0    0    -1  
$EndComp
Wire Wire Line
	3200 2850 4450 2850
$Comp
L power:GND #PWR05
U 1 1 5BD8A91F
P 4450 3150
F 0 "#PWR05" H 4450 2900 50  0001 C CNN
F 1 "GND" H 4455 2977 50  0000 C CNN
F 2 "" H 4450 3150 50  0001 C CNN
F 3 "" H 4450 3150 50  0001 C CNN
	1    4450 3150
	1    0    0    -1  
$EndComp
Wire Wire Line
	3200 3150 4450 3150
$Comp
L Cure_Symbol:SML-D13DWT86A LED1
U 1 1 5BDA0EA3
P 7800 3600
F 0 "LED1" V 8096 3432 50  0000 R CNN
F 1 "SML-D13DWT86A" V 8005 3432 50  0000 R CNN
F 2 "SML-D13DWT86A:LEDC1608X65N" H 8300 3750 50  0001 L BNN
F 3 "https://docs-emea.rs-online.com/webdocs/156b/0900766b8156b2c9.pdf" H 8300 3650 50  0001 L BNN
F 4 "ROHM SML-D13DWT86A, SML 608 nm Orange LED, 1608 (0603) Milky White SMD package" H 8300 3550 50  0001 L BNN "Description"
F 5 "0.65" H 8300 3450 50  0001 L BNN "Height"
F 6 "ROHM Semiconductor" H 8300 3350 50  0001 L BNN "Manufacturer_Name"
F 7 "SML-D13DWT86A" H 8300 3250 50  0001 L BNN "Manufacturer_Part_Number"
F 8 "1332873P" H 8300 3150 50  0001 L BNN "RS Part Number"
F 9 "http://uk.rs-online.com/web/p/products/1332873P" H 8300 3050 50  0001 L BNN "RS Price/Stock"
F 10 "SML-D13DWT86A" H 8300 2950 50  0001 L BNN "Arrow Part Number"
F 11 "http://uk.rs-online.com/web/p/products/1332873P" H 8300 2850 50  0001 L BNN "Arrow Price/Stock"
	1    7800 3600
	0    -1   -1   0   
$EndComp
$Comp
L Device:R_Small R3
U 1 1 5BDA0FBF
P 7800 3750
F 0 "R3" H 7650 3800 50  0000 L CNN
F 1 "150R" H 7550 3700 50  0000 L CNN
F 2 "Resistors_SMD:R_1206" H 7800 3750 50  0001 C CNN
F 3 "~" H 7800 3750 50  0001 C CNN
	1    7800 3750
	1    0    0    -1  
$EndComp
Wire Wire Line
	7800 3850 7800 3900
Wire Wire Line
	7800 3900 8050 3900
Connection ~ 8050 3900
Wire Wire Line
	8050 3900 8050 3700
Wire Wire Line
	7800 3650 7800 3500
Wire Wire Line
	7800 3200 7800 3150
Wire Wire Line
	7800 3150 8050 3150
$EndSCHEMATC
